<mxfile host="app.diagrams.net" modified="2022-10-27T17:04:02.964Z" agent="5.0 (X11)" etag="vNkGSrLNiLrkm86TKAum" version="20.5.1" type="gitlab">
  <diagram id="C5RBs43oDa-KdzZeNtuy" name="Page-1">
    <mxGraphModel dx="1111" dy="1599" grid="1" gridSize="10" guides="1" tooltips="1" connect="1" arrows="1" fold="1" page="1" pageScale="1" pageWidth="827" pageHeight="1169" background="#ffffff" math="0" shadow="0">
      <root>
        <mxCell id="WIyWlLk6GJQsqaUBKTNV-0" />
        <mxCell id="WIyWlLk6GJQsqaUBKTNV-1" parent="WIyWlLk6GJQsqaUBKTNV-0" />
        <mxCell id="5xCAKFTB1RqaO3-KzC8B-67" value="Module" style="shape=ext;double=1;rounded=1;whiteSpace=wrap;html=1;strokeWidth=1;fontSize=18;labelPosition=center;verticalLabelPosition=bottom;align=center;verticalAlign=top;" vertex="1" parent="WIyWlLk6GJQsqaUBKTNV-1">
          <mxGeometry x="530" y="612.8199999999999" width="400" height="210" as="geometry" />
        </mxCell>
        <mxCell id="5xCAKFTB1RqaO3-KzC8B-6" value="Frontend" style="rounded=1;whiteSpace=wrap;html=1;fontSize=18;" vertex="1" parent="WIyWlLk6GJQsqaUBKTNV-1">
          <mxGeometry x="245" y="380" width="120" height="75" as="geometry" />
        </mxCell>
        <mxCell id="5xCAKFTB1RqaO3-KzC8B-9" value="End User" style="shape=image;imageAspect=0;aspect=fixed;verticalLabelPosition=bottom;verticalAlign=top;fontSize=14;image=https://freesvg.org/img/PC.png;" vertex="1" parent="WIyWlLk6GJQsqaUBKTNV-1">
          <mxGeometry x="195" y="503.75" width="120" height="120" as="geometry" />
        </mxCell>
        <mxCell id="5xCAKFTB1RqaO3-KzC8B-18" value="Backend" style="shape=ext;double=1;rounded=1;whiteSpace=wrap;html=1;strokeWidth=1;fontSize=18;labelPosition=center;verticalLabelPosition=top;align=center;verticalAlign=bottom;" vertex="1" parent="WIyWlLk6GJQsqaUBKTNV-1">
          <mxGeometry x="460" y="335" width="470" height="207.5" as="geometry" />
        </mxCell>
        <mxCell id="5xCAKFTB1RqaO3-KzC8B-23" value="Module" style="rounded=0;whiteSpace=wrap;html=1;strokeWidth=1;fontSize=14;labelPosition=center;verticalLabelPosition=middle;align=center;verticalAlign=middle;" vertex="1" parent="WIyWlLk6GJQsqaUBKTNV-1">
          <mxGeometry x="700" y="370" width="80" height="40" as="geometry" />
        </mxCell>
        <mxCell id="5xCAKFTB1RqaO3-KzC8B-27" value="Module" style="rounded=0;whiteSpace=wrap;html=1;strokeWidth=1;fontSize=14;labelPosition=center;verticalLabelPosition=middle;align=center;verticalAlign=middle;" vertex="1" parent="WIyWlLk6GJQsqaUBKTNV-1">
          <mxGeometry x="820" y="357.5" width="80" height="42.5" as="geometry" />
        </mxCell>
        <mxCell id="5xCAKFTB1RqaO3-KzC8B-28" value="Module" style="rounded=0;whiteSpace=wrap;html=1;strokeWidth=1;fontSize=14;labelPosition=center;verticalLabelPosition=middle;align=center;verticalAlign=middle;" vertex="1" parent="WIyWlLk6GJQsqaUBKTNV-1">
          <mxGeometry x="690" y="357.5" width="100" height="166.25" as="geometry" />
        </mxCell>
        <mxCell id="5xCAKFTB1RqaO3-KzC8B-29" value="Module" style="rounded=0;whiteSpace=wrap;html=1;strokeWidth=1;fontSize=14;labelPosition=center;verticalLabelPosition=middle;align=center;verticalAlign=middle;" vertex="1" parent="WIyWlLk6GJQsqaUBKTNV-1">
          <mxGeometry x="820" y="423.75" width="80" height="40" as="geometry" />
        </mxCell>
        <mxCell id="5xCAKFTB1RqaO3-KzC8B-30" value="..." style="rounded=0;whiteSpace=wrap;html=1;strokeWidth=1;fontSize=14;labelPosition=center;verticalLabelPosition=middle;align=center;verticalAlign=middle;" vertex="1" parent="WIyWlLk6GJQsqaUBKTNV-1">
          <mxGeometry x="820" y="480" width="80" height="43.75" as="geometry" />
        </mxCell>
        <mxCell id="5xCAKFTB1RqaO3-KzC8B-32" value="GraphQL&lt;br&gt;&lt;div&gt;Controller&lt;/div&gt;" style="rounded=1;whiteSpace=wrap;html=1;strokeWidth=1;fontSize=14;" vertex="1" parent="WIyWlLk6GJQsqaUBKTNV-1">
          <mxGeometry x="490" y="413.75" width="130" height="50" as="geometry" />
        </mxCell>
        <mxCell id="5xCAKFTB1RqaO3-KzC8B-44" value="&lt;div&gt;Repository&lt;/div&gt;" style="rounded=1;whiteSpace=wrap;html=1;strokeWidth=1;fontSize=14;" vertex="1" parent="WIyWlLk6GJQsqaUBKTNV-1">
          <mxGeometry x="780" y="632.8199999999999" width="120" height="50" as="geometry" />
        </mxCell>
        <mxCell id="5xCAKFTB1RqaO3-KzC8B-46" value="Entity" style="rounded=1;whiteSpace=wrap;html=1;strokeWidth=1;fontSize=14;" vertex="1" parent="WIyWlLk6GJQsqaUBKTNV-1">
          <mxGeometry x="780" y="692.8199999999999" width="120" height="50" as="geometry" />
        </mxCell>
        <mxCell id="5xCAKFTB1RqaO3-KzC8B-47" value="other models" style="rounded=1;whiteSpace=wrap;html=1;strokeWidth=1;fontSize=14;" vertex="1" parent="WIyWlLk6GJQsqaUBKTNV-1">
          <mxGeometry x="780" y="752.8199999999999" width="120" height="50" as="geometry" />
        </mxCell>
        <mxCell id="5xCAKFTB1RqaO3-KzC8B-68" value="Rest&lt;br&gt;&lt;div&gt;Controller&lt;/div&gt;" style="rounded=1;whiteSpace=wrap;html=1;strokeWidth=1;fontSize=14;" vertex="1" parent="WIyWlLk6GJQsqaUBKTNV-1">
          <mxGeometry x="490" y="353.75" width="130" height="50" as="geometry" />
        </mxCell>
        <mxCell id="5xCAKFTB1RqaO3-KzC8B-69" value="CLI&lt;br&gt;Command" style="rounded=1;whiteSpace=wrap;html=1;strokeWidth=1;fontSize=14;" vertex="1" parent="WIyWlLk6GJQsqaUBKTNV-1">
          <mxGeometry x="490" y="473.75" width="130" height="50" as="geometry" />
        </mxCell>
        <mxCell id="5xCAKFTB1RqaO3-KzC8B-87" value="" style="endArrow=classic;startArrow=classic;html=1;rounded=0;dashed=1;fontSize=18;endSize=4;entryX=0;entryY=0.5;entryDx=0;entryDy=0;exitX=1;exitY=0.5;exitDx=0;exitDy=0;" edge="1" parent="WIyWlLk6GJQsqaUBKTNV-1" source="5xCAKFTB1RqaO3-KzC8B-6" target="5xCAKFTB1RqaO3-KzC8B-32">
          <mxGeometry width="50" height="50" relative="1" as="geometry">
            <mxPoint x="500" y="420" as="sourcePoint" />
            <mxPoint x="495" y="350" as="targetPoint" />
          </mxGeometry>
        </mxCell>
        <mxCell id="5xCAKFTB1RqaO3-KzC8B-88" value="" style="endArrow=classic;startArrow=classic;html=1;rounded=0;dashed=1;fontSize=18;endSize=4;entryX=0;entryY=0.5;entryDx=0;entryDy=0;exitX=0.96;exitY=0.7;exitDx=0;exitDy=0;exitPerimeter=0;" edge="1" parent="WIyWlLk6GJQsqaUBKTNV-1" source="5xCAKFTB1RqaO3-KzC8B-107" target="5xCAKFTB1RqaO3-KzC8B-68">
          <mxGeometry width="50" height="50" relative="1" as="geometry">
            <mxPoint x="430" y="340" as="sourcePoint" />
            <mxPoint x="510" y="420" as="targetPoint" />
          </mxGeometry>
        </mxCell>
        <mxCell id="5xCAKFTB1RqaO3-KzC8B-89" value="" style="endArrow=classic;startArrow=classic;html=1;rounded=0;dashed=1;fontSize=18;endSize=4;entryX=0;entryY=0.5;entryDx=0;entryDy=0;exitX=0.625;exitY=0.2;exitDx=0;exitDy=0;exitPerimeter=0;" edge="1" parent="WIyWlLk6GJQsqaUBKTNV-1" source="5xCAKFTB1RqaO3-KzC8B-108" target="5xCAKFTB1RqaO3-KzC8B-69">
          <mxGeometry width="50" height="50" relative="1" as="geometry">
            <mxPoint x="410" y="520" as="sourcePoint" />
            <mxPoint x="510" y="420" as="targetPoint" />
          </mxGeometry>
        </mxCell>
        <mxCell id="5xCAKFTB1RqaO3-KzC8B-91" value="&lt;div&gt;Facade&lt;/div&gt;&lt;div&gt;&lt;font size=&quot;1&quot;&gt;&lt;i style=&quot;font-size: 14px;&quot;&gt;one per module&lt;/i&gt;&lt;/font&gt;&lt;br&gt;&lt;/div&gt;" style="rounded=1;whiteSpace=wrap;html=1;strokeWidth=1;fontSize=18;" vertex="1" parent="WIyWlLk6GJQsqaUBKTNV-1">
          <mxGeometry x="560" y="632.8199999999999" width="160" height="170" as="geometry" />
        </mxCell>
        <mxCell id="5xCAKFTB1RqaO3-KzC8B-92" value="" style="shape=flexArrow;endArrow=classic;startArrow=classic;html=1;rounded=0;fontSize=18;endSize=4;entryX=0;entryY=0.5;entryDx=0;entryDy=0;" edge="1" parent="WIyWlLk6GJQsqaUBKTNV-1" target="5xCAKFTB1RqaO3-KzC8B-91">
          <mxGeometry width="100" height="100" relative="1" as="geometry">
            <mxPoint x="470" y="717.8199999999999" as="sourcePoint" />
            <mxPoint x="560" y="632.8199999999999" as="targetPoint" />
          </mxGeometry>
        </mxCell>
        <mxCell id="5xCAKFTB1RqaO3-KzC8B-93" value="" style="endArrow=classic;startArrow=classic;html=1;rounded=0;fontSize=18;endSize=4;entryX=0;entryY=0.5;entryDx=0;entryDy=0;" edge="1" parent="WIyWlLk6GJQsqaUBKTNV-1" target="5xCAKFTB1RqaO3-KzC8B-44">
          <mxGeometry width="50" height="50" relative="1" as="geometry">
            <mxPoint x="720" y="692.8199999999999" as="sourcePoint" />
            <mxPoint x="770" y="642.8199999999999" as="targetPoint" />
          </mxGeometry>
        </mxCell>
        <mxCell id="5xCAKFTB1RqaO3-KzC8B-94" value="" style="endArrow=classic;startArrow=classic;html=1;rounded=0;fontSize=18;endSize=4;entryX=0;entryY=0.5;entryDx=0;entryDy=0;exitX=1;exitY=0.5;exitDx=0;exitDy=0;" edge="1" parent="WIyWlLk6GJQsqaUBKTNV-1" source="5xCAKFTB1RqaO3-KzC8B-91" target="5xCAKFTB1RqaO3-KzC8B-46">
          <mxGeometry width="50" height="50" relative="1" as="geometry">
            <mxPoint x="720" y="742.8199999999999" as="sourcePoint" />
            <mxPoint x="770" y="692.8199999999999" as="targetPoint" />
          </mxGeometry>
        </mxCell>
        <mxCell id="5xCAKFTB1RqaO3-KzC8B-95" value="" style="endArrow=classic;startArrow=classic;html=1;rounded=0;fontSize=18;endSize=4;entryX=0;entryY=0.5;entryDx=0;entryDy=0;exitX=1;exitY=0.75;exitDx=0;exitDy=0;" edge="1" parent="WIyWlLk6GJQsqaUBKTNV-1" source="5xCAKFTB1RqaO3-KzC8B-91" target="5xCAKFTB1RqaO3-KzC8B-47">
          <mxGeometry width="50" height="50" relative="1" as="geometry">
            <mxPoint x="640" y="642.8199999999999" as="sourcePoint" />
            <mxPoint x="690" y="592.8199999999999" as="targetPoint" />
          </mxGeometry>
        </mxCell>
        <mxCell id="5xCAKFTB1RqaO3-KzC8B-96" value="" style="shape=curlyBracket;whiteSpace=wrap;html=1;rounded=1;flipH=1;strokeWidth=1;fontSize=14;" vertex="1" parent="WIyWlLk6GJQsqaUBKTNV-1">
          <mxGeometry x="620" y="373.75" width="20" height="130" as="geometry" />
        </mxCell>
        <mxCell id="5xCAKFTB1RqaO3-KzC8B-97" value="" style="endArrow=classic;startArrow=classic;html=1;rounded=0;fontSize=14;endSize=4;exitX=0.1;exitY=0.5;exitDx=0;exitDy=0;exitPerimeter=0;entryX=0;entryY=0.5;entryDx=0;entryDy=0;" edge="1" parent="WIyWlLk6GJQsqaUBKTNV-1" source="5xCAKFTB1RqaO3-KzC8B-96" target="5xCAKFTB1RqaO3-KzC8B-28">
          <mxGeometry width="50" height="50" relative="1" as="geometry">
            <mxPoint x="640" y="470" as="sourcePoint" />
            <mxPoint x="690" y="420" as="targetPoint" />
          </mxGeometry>
        </mxCell>
        <mxCell id="5xCAKFTB1RqaO3-KzC8B-98" value="" style="endArrow=classic;startArrow=classic;html=1;rounded=0;fontSize=14;endSize=4;exitX=1;exitY=0.5;exitDx=0;exitDy=0;entryX=0;entryY=0.5;entryDx=0;entryDy=0;" edge="1" parent="WIyWlLk6GJQsqaUBKTNV-1" source="5xCAKFTB1RqaO3-KzC8B-28" target="5xCAKFTB1RqaO3-KzC8B-27">
          <mxGeometry width="50" height="50" relative="1" as="geometry">
            <mxPoint x="680" y="300" as="sourcePoint" />
            <mxPoint x="730" y="250" as="targetPoint" />
          </mxGeometry>
        </mxCell>
        <mxCell id="5xCAKFTB1RqaO3-KzC8B-105" value="" style="endArrow=none;html=1;rounded=0;fontSize=14;endSize=4;exitX=0.984;exitY=0.056;exitDx=0;exitDy=0;exitPerimeter=0;entryX=1;entryY=1;entryDx=0;entryDy=0;strokeWidth=2;" edge="1" parent="WIyWlLk6GJQsqaUBKTNV-1" source="5xCAKFTB1RqaO3-KzC8B-67" target="5xCAKFTB1RqaO3-KzC8B-28">
          <mxGeometry width="50" height="50" relative="1" as="geometry">
            <mxPoint x="850" y="610" as="sourcePoint" />
            <mxPoint x="900" y="560" as="targetPoint" />
          </mxGeometry>
        </mxCell>
        <mxCell id="5xCAKFTB1RqaO3-KzC8B-106" value="" style="endArrow=none;html=1;rounded=0;fontSize=14;endSize=4;entryX=0;entryY=1;entryDx=0;entryDy=0;exitX=0.022;exitY=0.036;exitDx=0;exitDy=0;exitPerimeter=0;strokeWidth=2;" edge="1" parent="WIyWlLk6GJQsqaUBKTNV-1" source="5xCAKFTB1RqaO3-KzC8B-67" target="5xCAKFTB1RqaO3-KzC8B-28">
          <mxGeometry width="50" height="50" relative="1" as="geometry">
            <mxPoint x="630" y="640" as="sourcePoint" />
            <mxPoint x="680" y="590" as="targetPoint" />
          </mxGeometry>
        </mxCell>
        <mxCell id="5xCAKFTB1RqaO3-KzC8B-107" value="&lt;div&gt;Customers&lt;/div&gt;&lt;div&gt;service&lt;br&gt;&lt;/div&gt;" style="ellipse;shape=cloud;whiteSpace=wrap;html=1;rounded=0;strokeWidth=1;fontSize=14;" vertex="1" parent="WIyWlLk6GJQsqaUBKTNV-1">
          <mxGeometry x="240" y="220" width="170" height="115" as="geometry" />
        </mxCell>
        <mxCell id="5xCAKFTB1RqaO3-KzC8B-108" value="&lt;div&gt;CRON&lt;/div&gt;&lt;div&gt;&amp;amp;&lt;/div&gt;&lt;div&gt;scripts&lt;br&gt;&lt;/div&gt;" style="ellipse;shape=cloud;whiteSpace=wrap;html=1;rounded=0;strokeWidth=1;fontSize=14;" vertex="1" parent="WIyWlLk6GJQsqaUBKTNV-1">
          <mxGeometry x="280" y="650" width="160" height="110" as="geometry" />
        </mxCell>
        <mxCell id="5xCAKFTB1RqaO3-KzC8B-110" value="" style="endArrow=classic;startArrow=classic;html=1;rounded=0;strokeWidth=1;fontSize=14;endSize=4;exitX=0.5;exitY=0;exitDx=0;exitDy=0;entryX=0.5;entryY=1;entryDx=0;entryDy=0;dashed=1;" edge="1" parent="WIyWlLk6GJQsqaUBKTNV-1" source="5xCAKFTB1RqaO3-KzC8B-9" target="5xCAKFTB1RqaO3-KzC8B-6">
          <mxGeometry width="50" height="50" relative="1" as="geometry">
            <mxPoint x="160" y="440" as="sourcePoint" />
            <mxPoint x="210" y="390" as="targetPoint" />
          </mxGeometry>
        </mxCell>
      </root>
    </mxGraphModel>
  </diagram>
</mxfile>
